<svg width="40" height="40" viewBox="0 0 40 40" fill="none" xmlns="http://www.w3.org/2000/svg">
<path d="M19.9998 0C25.5261 0 30.5203 2.23761 34.1416 5.85802C37.7624 9.47964 40 14.4849 40 19.9998C40 25.5261 37.7624 30.5203 34.1416 34.1419C30.5203 37.7628 25.5261 40 19.9998 40C14.4735 40 9.47925 37.7628 5.85803 34.1419C2.2372 30.5203 0 25.5261 0 19.9998C0 14.4849 2.2372 9.47964 5.85803 5.85802C9.47925 2.23761 14.4735 0 19.9998 0ZM33.0344 6.96598C29.7007 3.63269 25.0938 1.56153 19.9998 1.56153C14.9058 1.56153 10.2989 3.63269 6.96518 6.96598C3.62163 10.2993 1.56153 14.9062 1.56153 19.9998C1.56153 25.0942 3.62163 29.7007 6.96518 33.045C10.2989 36.3784 14.9058 38.4384 19.9998 38.4384C25.0938 38.4384 29.7007 36.3784 33.0344 33.045C36.3784 29.7007 38.4377 25.0942 38.4377 19.9998C38.4377 14.9062 36.3784 10.2993 33.0344 6.96598Z" fill="#ffffff"/>
<path fill-rule="evenodd" clip-rule="evenodd" d="M31.0627 14.4297C30.7637 14.2084 29.6897 14.2084 28.6267 14.2084C27.5413 14.2305 26.4558 14.2305 26.201 14.3303C25.9691 14.4186 25.4484 15.6812 24.7731 16.9765C23.9973 18.439 23.0566 19.8562 22.4583 19.8334C21.6722 19.8334 21.8607 17.4305 21.9159 15.6481C21.9266 14.4849 21.7384 14.1083 21.5724 14.0093C21.1626 13.7209 20.0333 13.4448 20.0333 13.4448C20.0333 13.4448 16.644 13.1896 16.1684 14.6514C16.8215 14.7401 17.929 14.5401 17.4972 19.0694C17.464 19.2914 16.9765 21.1515 15.404 18.6374C15.0052 18.0068 13.4996 14.2305 12.968 14.2084C11.2285 14.1749 9.50174 14.0976 8.90418 14.4297C8.33898 14.7622 9.65675 17.3532 11.8829 20.8309C13.6874 23.6877 15.6035 25.9028 18.9258 26.4561C19.5569 26.5232 21.174 26.5887 21.6947 26.3457C22.0374 26.1793 21.6055 23.7212 22.7908 23.4771C23.3114 23.3777 25.3372 26.0468 26.1012 26.3457C26.5674 26.5339 27.5858 26.6112 28.6267 26.5666C29.7563 26.5339 31.0402 26.6778 31.1621 25.9028C31.4394 24.2083 27.7412 21.9929 27.641 20.9523C27.5523 20.1994 28.9923 18.8153 29.7228 17.752C30.6304 16.4673 31.6279 14.9172 31.0627 14.4297Z" fill="#ffffff"/>
</svg>
