<svg width="40" height="40" viewBox="0 0 40 40" fill="none" xmlns="http://www.w3.org/2000/svg">
<path d="M27.3961 12C27.3252 12 27.2521 12.0131 27.179 12.0415L8.39029 19.3544C7.85949 19.561 7.87355 20.3351 8.41149 20.5213L12.7677 22.0291L15.3945 27.4144C15.3951 27.4159 15.396 27.4172 15.3967 27.4188L15.4037 27.4332L15.4054 27.4322C15.4532 27.5316 15.5521 27.5959 15.658 27.5959C15.7201 27.5959 15.7837 27.5745 15.8387 27.5267L18.2996 25.3892L15.5518 23.2532L15.7669 26.0586L13.7916 21.8694L24.2902 15.4098L15.5518 23.2532L22.3545 28.5412C22.5823 28.7182 22.8432 28.8 23.0993 28.8C23.6389 28.8 24.1578 28.4373 24.3039 27.8386L27.9812 12.7714C28.0808 12.3631 27.7693 12 27.3961 12Z" fill="#ffffff"/>
<path d="M20 0C25.5259 0 30.5314 2.23662 34.1416 5.85829C37.763 9.47975 40 14.474 40 20C40 25.526 37.763 30.5205 34.1416 34.1417C30.5314 37.7632 25.5259 40 20 40C14.4851 40 9.47986 37.7632 5.85839 34.1417C2.23696 30.5205 0 25.526 0 20C0 14.474 2.23696 9.47975 5.85839 5.85829C9.47986 2.23662 14.4851 0 20 0ZM33.0454 6.96565C29.7009 3.63229 25.0942 1.56114 20 1.56114C14.917 1.56114 10.2991 3.63229 6.96595 6.96565C3.63225 10.299 1.56153 14.9059 1.56153 20C1.56153 25.0943 3.63225 29.701 6.96594 33.0454C10.2991 36.3789 14.917 38.4387 20 38.4387C25.0942 38.4387 29.7009 36.3789 33.0454 33.0454C36.3788 29.701 38.4385 25.0943 38.4385 20C38.4385 14.9059 36.3788 10.299 33.0454 6.96565Z" fill="#ffffff"/>
</svg>
