<svg width="40" height="40" viewBox="0 0 40 40" fill="none" xmlns="http://www.w3.org/2000/svg">
<path d="M20 0C25.5259 0 30.5314 2.23662 34.1416 5.85829C37.763 9.47975 40 14.474 40 20C40 25.526 37.763 30.5205 34.1416 34.1417C30.5314 37.7632 25.5259 40 20 40C14.4851 40 9.47986 37.7632 5.85839 34.1417C2.23696 30.5205 0 25.526 0 20C0 14.474 2.23696 9.47975 5.85839 5.85829C9.47986 2.23662 14.4851 0 20 0ZM33.0454 6.96565C29.7009 3.63229 25.0942 1.56114 20 1.56114C14.917 1.56114 10.2991 3.63229 6.96595 6.96565C3.63225 10.299 1.56153 14.9059 1.56153 20C1.56153 25.0943 3.63225 29.701 6.96594 33.0454C10.2991 36.3789 14.917 38.4387 20 38.4387C25.0942 38.4387 29.7009 36.3789 33.0454 33.0454C36.3788 29.701 38.4385 25.0943 38.4385 20C38.4385 14.9059 36.3788 10.299 33.0454 6.96565Z" fill="#ffffff"/>
<path fill-rule="evenodd" clip-rule="evenodd" d="M25.2937 9.97803H14.7179C12.1154 9.97803 9.97803 12.104 9.97803 14.7179V25.2938C9.97803 27.8958 12.1154 30.0333 14.7179 30.0333H25.2937C27.9071 30.0333 30.0333 27.8958 30.0333 25.2938V14.7179C30.0333 12.104 27.9071 9.97803 25.2937 9.97803ZM26.3456 12.658C25.7697 12.658 25.3047 13.123 25.3047 13.6987C25.3047 14.2748 25.7697 14.7398 26.3456 14.7398C26.9214 14.7398 27.3867 14.2748 27.3867 13.6987C27.3867 13.123 26.9214 12.658 26.3456 12.658ZM25.2937 20.0001C25.2937 17 23.0001 14.696 20 14.7179C17 14.7398 14.7179 17.0003 14.7179 20.0001C14.7179 23 17.0001 25.2938 20 25.2938C23 25.2938 25.2937 23.0003 25.2937 20.0001Z" fill="#ffffff"/>
</svg>
