<svg width="18" height="18" viewBox="0 0 18 18" fill="none" xmlns="http://www.w3.org/2000/svg">
<path d="M11.5575 12.4425L8.1225 9L11.5575 5.5575L10.5 4.5L6 9L10.5 13.5L11.5575 12.4425Z" fill="#333333"/>
</svg>
