<svg width="32" height="14" viewBox="0 0 32 14" fill="none" xmlns="http://www.w3.org/2000/svg">
<path d="M30.6667 5.33332H30.5332C29.9154 2.29044 27.2251 0 24 0C21.6279 0 19.5454 1.23925 18.3638 3.10538C17.6741 2.79663 16.9166 2.66625 16.0003 2.66625C15.0848 2.66625 14.327 2.79707 13.6368 3.10619C12.4552 1.23956 10.3724 0 8.00006 0C4.775 0 2.08469 2.2905 1.46687 5.33332H1.33337C0.596937 5.33332 0 5.93026 0 6.66663C0 7.40301 0.596938 7.99995 1.33331 7.99995H1.46681C2.08456 11.0428 4.77487 13.3333 8 13.3333C11.6817 13.3333 14.6667 10.3483 14.6667 6.66657C14.6667 6.30801 14.638 5.95626 14.5835 5.61301C14.9619 5.40482 15.3746 5.33282 16.0002 5.33282C16.6271 5.33282 17.0391 5.40432 17.4166 5.61207C17.362 5.95557 17.3333 6.30769 17.3333 6.66657C17.3333 10.3483 20.3183 13.3333 24 13.3333C27.2251 13.3333 29.9154 11.0428 30.5332 7.99995H30.6667C31.4031 7.99995 32 7.40301 32 6.66663C32 5.93026 31.4031 5.33332 30.6667 5.33332ZM8 10.6666C5.79106 10.6666 4 8.87557 4 6.66663C4 4.45769 5.79106 2.66663 8 2.66663C10.2089 2.66663 12 4.45769 12 6.66663C12 8.87557 10.2089 10.6666 8 10.6666ZM24 10.6666C21.7911 10.6666 20 8.87557 20 6.66663C20 4.45769 21.7911 2.66663 24 2.66663C26.2089 2.66663 28 4.45769 28 6.66663C28 8.87557 26.2089 10.6666 24 10.6666Z" fill="white"/>
</svg>
