<svg width="16" height="17" viewBox="0 0 16 17" fill="none" xmlns="http://www.w3.org/2000/svg">
<path d="M13.332 2.77148H2.66536C1.93203 2.77148 1.3387 3.39538 1.3387 4.15793L1.33203 12.4766C1.33203 13.2391 1.93203 13.863 2.66536 13.863H13.332C14.0654 13.863 14.6654 13.2391 14.6654 12.4766V4.15793C14.6654 3.39538 14.0654 2.77148 13.332 2.77148ZM13.332 5.54437L7.9987 9.01048L2.66536 5.54437V4.15793L7.9987 7.62404L13.332 4.15793V5.54437Z" fill="#828282"/>
</svg>
