<svg width="16" height="26" viewBox="0 0 16 26" fill="none" xmlns="http://www.w3.org/2000/svg">
<path d="M16 22.9233L6.11066 13L16 3.055L12.9555 0L0 13L12.9555 26L16 22.9233Z" fill="#26358C" fill-opacity="0.8"/>
</svg>
